{
  "data": [
    {
      "id": 11,
      "title": "The Hades",
      "trailer": "https://www.youtube.com/watch?v=PSEoAaSswgo",
      "poster": "https://image.api.playstation.com/vulcan/ap/rnd/202104/0517/9AcM3vy5t77zPiJyKHwRfnNT.png",
      "year": "2020",
      "country": "New Zealand, USA",
      "imdb_rating": "8.8",
      "genres": [
        "主角",
        "Hades",
        "愛神"
      ],
      "images": [
        "https://www.u-acg.com/wp-content/uploads/2021/06/HADES-01.jpg",
        "https://static.wikia.nocookie.net/hades_gamepedia_en/images/6/64/Hades.png/revision/latest?cb=20210207072259",
        "https://static.wikia.nocookie.net/hades/images/c/c6/Aphrodite.png/revision/latest/scale-to-width-down/314?cb=20210914051011&path-prefix=zh"
      ]
    },
    {
      "id": 12,
      "title": "Star Wars: Episode V - The Empire Strikes Back",
      "trailer": "https://www.youtube.com/watch?v=PSEoAaSswgo",
      "poster": "https://moviesapi.ir/images/tt0080684_poster.jpg",
      "year": "1980",
      "country": "USA",
      "imdb_rating": "8.8",
      "genres": [
        "Action",
        "Adventure",
        "Fantasy"
      ],
      "images": [
        "https://moviesapi.ir/images/tt0080684_screenshot1.jpg",
        "https://moviesapi.ir/images/tt0080684_screenshot2.jpg",
        "https://moviesapi.ir/images/tt0080684_screenshot3.jpg"
      ]
    },
    {
      "id": 13,
      "title": "Forrest Gump",
      "trailer": "https://www.youtube.com/watch?v=PSEoAaSswgo",
      "poster": "https://moviesapi.ir/images/tt0109830_poster.jpg",
      "year": "1994",
      "country": "USA",
      "imdb_rating": "8.8",
      "genres": [
        "Comedy",
        "Drama"
      ],
      "images": [
        "https://moviesapi.ir/images/tt0109830_screenshot1.jpg",
        "https://moviesapi.ir/images/tt0109830_screenshot2.jpg",
        "https://moviesapi.ir/images/tt0109830_screenshot3.jpg"
      ]
    },
    {
      "id": 14,
      "title": "Inception",
      "trailer": "https://www.youtube.com/watch?v=PSEoAaSswgo",
      "poster": "https://moviesapi.ir/images/tt1375666_poster.jpg",
      "year": "2010",
      "country": "USA, UK",
      "imdb_rating": "8.8",
      "genres": [
        "Action",
        "Adventure",
        "Sci-Fi"
      ],
      "images": [
        "https://moviesapi.ir/images/tt1375666_screenshot1.jpg",
        "https://moviesapi.ir/images/tt1375666_screenshot2.jpg",
        "https://moviesapi.ir/images/tt1375666_screenshot3.jpg"
      ]
    },
    {
      "id": 15,
      "title": "The Lord of the Rings: The Two Towers",
      "trailer": "https://www.youtube.com/watch?v=PSEoAaSswgo",
      "poster": "https://moviesapi.ir/images/tt0167261_poster.jpg",
      "year": "2002",
      "country": "USA, New Zealand",
      "imdb_rating": "8.7",
      "genres": [
        "Adventure",
        "Drama",
        "Fantasy"
      ],
      "images": [
        "https://moviesapi.ir/images/tt0167261_screenshot1.jpg",
        "https://moviesapi.ir/images/tt0167261_screenshot2.jpg",
        "https://moviesapi.ir/images/tt0167261_screenshot3.jpg"
      ]
    },
    {
      "id": 16,
      "title": "One Flew Over the Cuckoo's Nest",
      "trailer": "https://www.youtube.com/watch?v=PSEoAaSswgo",
      "poster": "https://moviesapi.ir/images/tt0073486_poster.jpg",
      "year": "1975",
      "country": "USA",
      "imdb_rating": "8.7",
      "genres": [
        "Drama"
      ],
      "images": [
        "https://moviesapi.ir/images/tt0073486_screenshot1.jpg",
        "https://moviesapi.ir/images/tt0073486_screenshot2.jpg",
        "https://moviesapi.ir/images/tt0073486_screenshot3.jpg"
      ]
    },
    {
      "id": 17,
      "title": "Goodfellas",
      "trailer": "https://www.youtube.com/watch?v=PSEoAaSswgo",
      "poster": "https://moviesapi.ir/images/tt0099685_poster.jpg",
      "year": "1990",
      "country": "USA",
      "imdb_rating": "8.7",
      "genres": [
        "Biography",
        "Crime",
        "Drama"
      ],
      "images": [
        "https://moviesapi.ir/images/tt0099685_screenshot1.jpg",
        "https://moviesapi.ir/images/tt0099685_screenshot2.jpg",
        "https://moviesapi.ir/images/tt0099685_screenshot3.jpg"
      ]
    },
    {
      "id": 18,
      "title": "The Matrix",
      "trailer": "https://www.youtube.com/watch?v=PSEoAaSswgo",
      "poster": "https://moviesapi.ir/images/tt0133093_poster.jpg",
      "year": "1999",
      "country": "USA",
      "imdb_rating": "8.7",
      "genres": [
        "Action",
        "Sci-Fi"
      ],
      "images": [
        "https://moviesapi.ir/images/tt0133093_screenshot1.jpg",
        "https://moviesapi.ir/images/tt0133093_screenshot2.jpg",
        "https://moviesapi.ir/images/tt0133093_screenshot3.jpg"
      ]
    },
    {
      "id": 19,
      "title": "Seven Samurai",
      "trailer": "https://www.youtube.com/watch?v=PSEoAaSswgo",
      "poster": "https://moviesapi.ir/images/tt0047478_poster.jpg",
      "year": "1954",
      "country": "Japan",
      "imdb_rating": "8.7",
      "genres": [
        "Action",
        "Adventure",
        "Drama"
      ]
    },
    {
      "id": 20,
      "title": "Star Wars: Episode IV - A New Hope",
      "trailer": "https://www.youtube.com/watch?v=PSEoAaSswgo",
      "poster": "https://moviesapi.ir/images/tt0076759_poster.jpg",
      "year": "1977",
      "country": "USA",
      "imdb_rating": "8.7",
      "genres": [
        "Action",
        "Adventure",
        "Fantasy"
      ],
      "images": [
        "https://moviesapi.ir/images/tt0076759_screenshot1.jpg",
        "https://moviesapi.ir/images/tt0076759_screenshot2.jpg",
        "https://moviesapi.ir/images/tt0076759_screenshot3.jpg"
      ]
    }
  ],
  "metadata": {
    "current_page": "2",
    "per_page": 10,
    "page_count": 25,
    "total_count": 250
  }
}
